Working with United States Census Data Using tidycensus
…
## Using Census Summary File 1

## Getting data from the 2010 decennial Census

## Using Census Summary File 1

names(population_rural_2000_2010)<-my_years

rural_change<-full_join(population_rural_2000_2010[["2000"]],
                        population_rural_2000_2010[["2010"]],by="NAME") %>%  
              mutate(rural_pct_change=rural_pct.y-rural_pct.x) %>% 
              select(NAME,rural_pct_change)
rural_change

## # A tibble: 52 x 2
##    NAME                 rural_pct_change
##    <chr>                           <dbl>
##  1 Alabama                        -3.59 
##  2 Alaska                         -0.421
##  3 Arizona                        -1.64 
##  4 Arkansas                       -3.64 
##  5 California                     -0.509
##  6 Colorado                       -1.68 
##  7 Connecticut                    -0.252
##  8 Delaware                       -3.18 
##  9 District of Columbia            0    
## 10 Florida                        -1.88 
## #  with 42 more rows
…
## Using Census Summary File 1

## Getting data from the 2010 decennial Census

## Using Census Summary File 1

names(population_rural_2000_2010)<-my_years

joined_ds<-full_join(population_rural_2000_2010[["2000"]],population_rural_2000_2010[["2010"]],by="NAME") %>% 
           mutate(pct_change=rural_pct.y-rural_pct.x) %>% 
           select(NAME,pct_change)
joined_ds

## # A tibble: 52 x 2
##    NAME                 pct_change
##    <chr>                     <dbl>
##  1 Alabama                  -3.59 
##  2 Alaska                   -0.421
##  3 Arizona                  -1.64 
##  4 Arkansas                 -3.64 
##  5 California               -0.509
##  6 Colorado                 -1.68 
##  7 Connecticut              -0.252
##  8 Delaware                 -3.18 
##  9 District of Columbia      0    
## 10 Florida                  -1.88 
## #  with 42 more rows
